<?xml version="1.0" encoding="utf-8"?>
<!-- Generator: Adobe Illustrator 22.1.0, SVG Export Plug-In . SVG Version: 6.00 Build 0)  -->
<svg version="1.1" id="Layer_1" xmlns="http://www.w3.org/2000/svg" xmlns:xlink="http://www.w3.org/1999/xlink" x="0px" y="0px"
	 width="61.3px" height="72px" viewBox="0 0 61.3 72" enable-background="new 0 0 61.3 72" xml:space="preserve">
<g>
	<path d="M14.6,63.6h36v1.1c0,2.4-1.9,4.3-4.3,4.3H13.1c0.9-1.2,1.5-2.6,1.4-4.3v-0.1L14.6,63.6z M8.3,53.6c-0.4,0-0.8,0.2-1.1,0.5
		c-0.3,0.3-0.4,0.7-0.4,1.1c0,0.4,0.2,0.8,0.5,1.1c0.3,0.3,0.7,0.4,1.1,0.4h23c0.4,0,0.8-0.2,1.1-0.4c0.3-0.3,0.5-0.7,0.5-1.1
		s-0.2-0.8-0.5-1.1c-0.3-0.3-0.7-0.4-1.1-0.4h-23C8.4,53.6,8.3,53.6,8.3,53.6L8.3,53.6z M54.7,45.4l1.4,5.4l-1.4-0.3
		c-0.5-0.1-1,0-1.4,0.4l-1.2,1.2l-1.4-5.1C52.1,46.8,53.5,46.2,54.7,45.4L54.7,45.4z M40.2,45.4c1.2,0.8,2.6,1.3,4,1.7l-1.4,5.1
		L41.7,51c-0.4-0.4-0.9-0.5-1.4-0.4l-1.4,0.3L40.2,45.4z M8.3,44.4c-0.4,0-0.8,0.2-1.1,0.5c-0.3,0.3-0.4,0.7-0.4,1.1
		c0,0.4,0.2,0.8,0.5,1.1c0.3,0.3,0.7,0.4,1.1,0.4h23c0.4,0,0.8-0.2,1.1-0.4c0.3-0.3,0.5-0.7,0.5-1.1c0-0.4-0.2-0.8-0.5-1.1
		c-0.3-0.3-0.7-0.4-1.1-0.4h-23C8.4,44.4,8.3,44.4,8.3,44.4L8.3,44.4z M8.3,35.2c-0.4,0-0.8,0.2-1.1,0.5c-0.3,0.3-0.4,0.7-0.4,1.1
		c0,0.4,0.2,0.8,0.5,1.1c0.3,0.3,0.7,0.4,1.1,0.4h21.4c0.4,0,0.8-0.2,1.1-0.4c0.3-0.3,0.5-0.7,0.5-1.1c0-0.4-0.2-0.8-0.5-1.1
		c-0.3-0.3-0.7-0.4-1.1-0.4H8.4C8.4,35.2,8.3,35.2,8.3,35.2L8.3,35.2z M47.5,29.1c2.6,0,4.6,2,4.6,4.6s-2,4.6-4.6,4.6
		s-4.6-2-4.6-4.6S44.9,29.1,47.5,29.1z M47.5,26c-4.2,0-7.7,3.4-7.7,7.7s3.4,7.7,7.7,7.7s7.7-3.4,7.7-7.7S51.7,26,47.5,26z M8.3,26
		c-0.4,0-0.8,0.2-1.1,0.5c-0.3,0.3-0.4,0.7-0.4,1.1c0,0.4,0.2,0.8,0.5,1.1C7.6,29,8,29.1,8.4,29.1h21.4c0.4,0,0.8-0.2,1.1-0.4
		c0.3-0.3,0.5-0.7,0.5-1.1c0-0.4-0.2-0.8-0.5-1.1c-0.3-0.3-0.7-0.4-1.1-0.4H8.4C8.4,26,8.3,26,8.3,26L8.3,26z M47.5,23
		c5.9,0,10.7,4.8,10.7,10.7s-4.8,10.7-10.7,10.7s-10.7-4.8-10.7-10.7S41.5,23,47.5,23z M8.3,16.9c-0.4,0-0.8,0.2-1.1,0.5
		c-0.3,0.3-0.4,0.7-0.4,1.1c0,0.4,0.2,0.8,0.5,1.1c0.3,0.3,0.7,0.4,1.1,0.4h30.6c0.4,0,0.8-0.2,1.1-0.4c0.3-0.3,0.5-0.7,0.5-1.1
		c0-0.4-0.2-0.8-0.5-1.1c-0.3-0.3-0.7-0.4-1.1-0.4H8.4C8.4,16.8,8.3,16.8,8.3,16.9L8.3,16.9z M8.3,7.7c-0.4,0-0.8,0.2-1.1,0.5
		C6.9,8.5,6.8,8.9,6.8,9.3c0,0.4,0.2,0.8,0.5,1.1c0.3,0.3,0.7,0.4,1.1,0.4h30.6c0.4,0,0.8-0.2,1.1-0.4c0.3-0.3,0.5-0.7,0.5-1.1
		c0-0.4-0.2-0.8-0.5-1.1c-0.3-0.3-0.7-0.4-1.1-0.4H8.4C8.4,7.7,8.3,7.7,8.3,7.7L8.3,7.7z M3.1,3.1h41.4v17.2
		c-6.1,1.4-10.7,6.9-10.7,13.4c0,3.7,1.5,7.1,3.9,9.6l-2.3,9.2c-0.1,0.5,0,1.1,0.4,1.4c0.4,0.4,0.9,0.5,1.4,0.4l3-0.6l2.5,2.5
		c0.5,0.5,1.2,0.6,1.8,0.3v4H13c-0.8,0-1.5,0.7-1.5,1.5v2.6v0.1c0.1,2.3-1.7,4-3.9,4.2c0,0-0.1,0-0.1,0H7.3c-2.4,0-4.3-1.9-4.3-4.3
		V3.1z M1.4,0C0.6,0.1,0,0.7,0,1.5v63.1c0,4,3.3,7.3,7.3,7.3h39c4,0,7.3-3.3,7.3-7.3V62c0-0.8-0.7-1.5-1.5-1.5h-4.6v-13h0.1l2.2,8.1
		c0.1,0.5,0.6,0.9,1.1,1.1c0.5,0.1,1.1,0,1.5-0.4l2.5-2.5l3,0.6c0.5,0.1,1-0.1,1.4-0.4c0.4-0.4,0.5-0.9,0.4-1.4l-2.3-9.2
		c2.4-2.5,3.9-5.9,3.9-9.6c0-7.6-6.2-13.8-13.8-13.8V1.5C47.5,0.7,46.8,0,46,0H1.5C1.5,0,1.4,0,1.4,0L1.4,0z"/>
</g>
</svg>
