<?xml version="1.0" encoding="utf-8"?>
<!-- Generator: Adobe Illustrator 22.1.0, SVG Export Plug-In . SVG Version: 6.00 Build 0)  -->
<svg version="1.1" id="Layer_1" xmlns="http://www.w3.org/2000/svg" xmlns:xlink="http://www.w3.org/1999/xlink" x="0px" y="0px"
	 width="72px" height="72px" viewBox="0 0 72 72" enable-background="new 0 0 72 72" xml:space="preserve">
<g>
	<g>
		<g>
			<path d="M71.2,68L54.6,51.3l0.2-0.3c4.7-5.6,7.3-12.7,7.3-20c0-17.1-13.9-31-31-31S0,13.9,0,31s13.9,31,31,31
				c7.3,0,14.4-2.6,20-7.3l0.3-0.2l16.7,16.7c0.4,0.5,1,0.8,1.7,0.8c0.6,0,1.3-0.2,1.7-0.7c0.4-0.5,0.7-1.1,0.7-1.7
				C72,69,71.7,68.4,71.2,68z M31,57.5C16.4,57.5,4.6,45.6,4.6,31S16.4,4.6,31,4.6S57.5,16.4,57.5,31S45.6,57.5,31,57.5z"/>
		</g>
		<path d="M31.2,12.4c-0.8,0-1.8,0.8-1.8,1.8V16c-4.5,0.7-7.6,4.1-7.6,8c0,2.7,1.2,4.8,3,6.1s3.8,2,5.9,2.6c2,0.6,3.7,1.2,4.7,2
			c1,0.8,1.6,1.6,1.6,3.3c0,2.3-2,4.7-5.8,4.7c-1.5,0-3.1-0.6-4.2-1.4c-1.1-0.8-1.6-1.8-1.6-2.7c0-0.9-0.8-1.8-1.8-1.8
			c-0.9,0-1.8,0.9-1.8,1.8c0,2.2,1.3,4.2,3,5.5c1.3,1,2.9,1.7,4.6,2V48c0,0.9,0.9,1.8,1.8,1.8c0.8,0,1.8-0.8,1.8-1.8v-1.9
			c4.5-0.7,7.6-4.1,7.6-8c0-2.7-1.2-4.8-3-6.1c-1.7-1.3-3.8-2-5.9-2.6c-2-0.6-3.7-1.2-4.7-2c-1-0.8-1.6-1.6-1.6-3.3
			c0-2.3,2-4.7,5.8-4.7c1.5,0,3.1,0.6,4.2,1.4c1.1,0.8,1.6,1.9,1.6,2.7c0,0.9,0.8,1.8,1.8,1.8c0.9,0,1.8-0.9,1.8-1.8
			c0-2.2-1.3-4.2-3-5.5c-1.3-1-2.9-1.7-4.6-2v-1.9C32.9,13.2,32,12.4,31.2,12.4L31.2,12.4z"/>
	</g>
</g>
</svg>
