<?xml version="1.0" encoding="utf-16"?>
<!-- Generator: Adobe Illustrator 22.1.0, SVG Export Plug-In . SVG Version: 6.00 Build 0)  -->
<svg version="1.1" id="Layer_1" xmlns="http://www.w3.org/2000/svg" xmlns:xlink="http://www.w3.org/1999/xlink" x="0px" y="0px"
	 width="59.6px" height="72px" viewBox="0 0 59.6 72" enable-background="new 0 0 59.6 72" xml:space="preserve">
<g>
	<path d="M56.8,41.4c-3.2-3.3-8.3-4-12.2-1.7c-6.3-6.5-12.7-12.8-18.2-18.2c2.3-3.9,1.6-9-1.7-12.2c-2-1.9-4.5-2.8-7.2-2.8
		c-2.6,0.1-5.1,1.2-6.9,3.1C9.3,11.1,8.3,13,8,14.9c-2,0.4-3.9,1.4-5.2,2.8c-1.8,1.9-2.8,4.5-2.8,7.1c0.1,2.7,1.2,5.1,3.1,7
		c3.3,3.2,8.3,3.7,12.2,1.3L33,50.9c-2.4,3.9-1.9,8.9,1.3,12.2c1.8,1.9,4.3,3,7,3.1c0.1,0,0.1,0,0.2,0c2.6,0,5-1,6.9-2.8
		c1.5-1.4,2.5-3.2,2.8-5.2c2-0.3,3.8-1.2,5.3-2.7c1.9-1.8,3-4.3,3.1-7C59.7,45.8,58.7,43.3,56.8,41.4z M48,55.3
		c0.2,2.1-0.5,4.2-2,5.6c-2.6,2.5-6.8,2.4-9.3-0.2c-1.3-1.3-1.9-3-1.9-4.8c0.1-1.8,0.9-3.5,2.4-4.8l0.4-0.3L15.4,28.5l-0.3,0.4
		c-1.2,1.4-2.8,2.3-4.6,2.4c-1.8,0.1-3.6-0.6-5-1.9c-1.3-1.2-2-2.9-2-4.6c0-1.8,0.6-3.4,1.8-4.7c1.4-1.5,3.4-2.2,5.6-2l0.6,0.1
		l-0.1-0.6C11,15.5,11.6,13.4,13,12c2.5-2.6,6.7-2.7,9.3-0.2c1.3,1.3,2.1,3.1,2,4.9c0,1.8-0.8,3.5-2.2,4.7l-0.4,0.3l0.4,0.4
		c8.7,8.4,14.8,14.5,21.9,21.9l0.4,0.4l0.3-0.4c1.3-1.4,3-2.2,4.8-2.2c1.8,0,3.6,0.7,4.8,2c2.5,2.6,2.4,6.8-0.2,9.3
		c-1.5,1.4-3.6,2-5.6,1.7l-0.6-0.1L48,55.3z"/>
	<path d="M20.1,3.8c5.4,0,9.7,4.4,9.7,9.7c0,1,0.8,1.9,1.9,1.9c1,0,1.9-0.8,1.9-1.9C33.6,6.1,27.6,0,20.1,0c-1,0-1.9,0.8-1.9,1.9
		C18.2,2.9,19.1,3.8,20.1,3.8z"/>
	<path d="M38.9,68.2c-5.4,0-9.7-4.4-9.7-9.7c0-1-0.8-1.9-1.9-1.9s-1.9,0.8-1.9,1.9c0,7.4,6.1,13.5,13.5,13.5c1,0,1.9-0.8,1.9-1.9
		S40,68.2,38.9,68.2z"/>
</g>
</svg>
