<?xml version="1.0" encoding="utf-8"?>
<!-- Generator: Adobe Illustrator 22.1.0, SVG Export Plug-In . SVG Version: 6.00 Build 0)  -->
<svg version="1.1" id="Layer_1" xmlns="http://www.w3.org/2000/svg" xmlns:xlink="http://www.w3.org/1999/xlink" x="0px" y="0px"
	 width="83.3px" height="72.2px" viewBox="0 0 83.3 72.2" enable-background="new 0 0 83.3 72.2" xml:space="preserve">
<g>
	<g>
		<path d="M72.4,22.1l-4.2,4.2c0.6,4.4-0.9,8.8-4.1,12c-4.6,4.6-9.2,9.3-13.8,13.9c-4.5,4.5-8.9,9-13.4,13.5l-0.3,0.3L9.3,38.3
			c-5.7-5.7-5.7-14.7,0-20.4c2.7-2.7,6.3-4.3,10.1-4.3c3.8,0,7.4,1.5,10.1,4.3l5.4,5.5c1,1,2.7,1,3.6,0l5.4-5.4
			c3.8-3.9,9.4-5.2,14.4-3.6l3.9-3.9c-7.4-3.5-16.2-2-22,3.8l-3.6,3.6l-3.6-3.6c-3.6-3.7-8.5-5.7-13.7-5.7c-5.2,0-10.1,2-13.7,5.7
			c-7.5,7.6-7.5,20,0,27.6l29.2,29.5c1,1,2.7,1,3.6,0L67.7,42C72.8,36.8,74.6,29.1,72.4,22.1z"/>
	</g>
	<path d="M81,0c-0.7,0-1.3,0.3-1.8,0.8L38.3,41.6c-0.4,0.4-1,0.7-1.6,0.7c-0.6,0-1.2-0.2-1.6-0.7L21.5,27.9
		c-0.5-0.5-1.1-0.7-1.8-0.7c-0.7,0-1.3,0.3-1.8,0.7c-0.5,0.5-0.7,1.1-0.7,1.8c0,0.7,0.3,1.3,0.7,1.8l13.7,13.7
		c1.4,1.4,3.2,2.1,5.1,2.1c2,0,3.8-0.8,5.1-2.2L82.6,4.2c0.5-0.5,0.7-1.1,0.7-1.8c0-0.7-0.2-1.3-0.7-1.7C82.2,0.3,81.6,0,81,0L81,0z
		"/>
</g>
</svg>
